Parse Rs
…
## 
## Attaching package: 'dplyr'

## The following objects are masked from 'package:stats':
## 
##     filter, lag

## The following objects are masked from 'package:base':
## 
##     intersect, setdiff, setequal, union

parsed_rd %>% group_by(ver, pkg, fun, evaluated) %>% summarize(args=sum(!is.na(paramName) || !is.na(placeholder)))

## # A tibble: 90,193 x 5
## # Groups:   ver, pkg, fun [90,193]
##    ver   pkg   fun          evaluated  args
##    <chr> <chr> <chr>        <lgl>     <int>
##  1 3.0.0 base  <NA>         TRUE          0
##  2 3.0.0 base  -            TRUE          1
##  3 3.0.0 base  :            TRUE          1
##  4 3.0.0 base  ::           TRUE          1
##  5 3.0.0 base  :::          TRUE          1
##  6 3.0.0 base  !            TRUE          1
##  7 3.0.0 base  !=           TRUE          1
##  8 3.0.0 base  .Alias       TRUE          1
##  9 3.0.0 base  .Autoloaded  FALSE         0
## 10 3.0.0 base  .AutoloadEnv FALSE         0
## #  with 90,183 more rows
…
